-------------------------------------------------------------------------------
Test set: com.NewTours.Testscripts.NewTest
-------------------------------------------------------------------------------
Tests run: 0, Failures: 0, Errors: 0, Skipped: 0, Time elapsed: 0.812 sec - in com.NewTours.Testscripts.NewTest
